{
  "api_key": "MjU5MDUyMDU5MTU0NzEwNTI4.CzSMjQ.1BKrA7wIXRjcm8But5QV2QyaHas",
  "mainChannel": "general",
  "designatedBotSpamChannel": "bot_spam",
  "defaultTwitchChannel": "https://www.twitch.tv/sprapple",
  "botMentionTag": "@sprapple-bot",
  "bannedFromBotRoleName": "banned from bot",
  "welcomeMessage": "**%NAME%** has joined the server!",
  "farewellMessage": "**%NAME%** has left the server.",
  "defaultHourRestrictionPunishment": 2,
  "managerialRoles": [
    "server owner",
    "bot manager"
  ],
  "parodyGameStatusList": [
    "with Sprapple",
    "with himself",
    "RoonScape",
    "RoonSkape",
    "RuneScape 4",
    "World of WarScape",
    "SprappleScape",
    "Button-mashing Simulator"
  ],
  "jokeNudesImageList": [
    "https://i.gyazo.com/a545641943df9632bd870dbc962e85e9.png"
  ],
  "randomMemeImageList": [],
  "randomJokeList": []
}